firstName,middleInitial,lastName,birthday,employedAt
Janice,W,Grissam,1936-7-26,2008-1-16
Aurora,J,Bradberry,1956-8-28,2016-10-4
Guadalupe,P,Serrone,1986-4-19,2006-1-12
Garrison,I,Pettiway,1939-7-9,2002-1-10
Jennings,Z,Borley,1976-2-7,1993-1-6
Tiffanie,U,Savastand,1964-8-15,2002-9-14
Camilla,L,Latulipe,1945-7-14,2007-3-4
Steve,M,Puran,1961-10-24,2013-9-22
Kathrine,L,Droesch,1960-9-8,2000-12-10
Davonte,D,Payer,1963-3-25,1991-7-11
Jeanette,V,Opbroek,1952-4-24,2014-6-26
Geneva,I,Matrisciano,1968-6-12,2006-1-3
Tanisha,T,Kleinsorge,1971-7-16,1990-12-5
Susann,I,Hdiiand,1926-7-4,2012-9-15
Byron,M,Schmittler,1954-7-2,2004-10-5
Allyn,R,Ziobro,1969-11-28,1991-5-6
Americo,W,Polli,1950-5-28,1993-8-18
Brooks,R,Bankowski,2000-3-5,2015-11-19
Twila,V,Gesling,1945-1-6,2007-11-19
Elliott,V,Cabala,1938-1-25,2015-8-3
Dave,G,Helmka,1955-7-14,2015-10-17
Carrol,B,Calingo,1968-8-9,2008-5-28
Emil,A,Labeck,1922-11-23,2006-11-25
Tami,S,Gillit,1993-5-3,2017-1-21
Branden,Y,Troung,1923-6-8,2010-7-15
Gregg,O,Hil,1977-3-28,2005-5-16
Buster,L,Sancheztorres,1941-9-13,1999-9-10
Carmen,C,Blackshire,1991-7-6,1995-8-4
Brandan,C,Waid,1925-3-28,1996-2-2
Malcolm,X,Drossart,1959-11-20,2003-5-28
Marleen,L,Falkenbach,1947-6-15,2009-6-3
Janet,C,Ledlow,1996-4-19,2015-4-24
Cynthia,B,Pfisterer,1979-3-16,2003-8-24
Evelyn,T,Loeung,1987-12-5,2008-6-19
Macey,W,Shumock,1979-8-3,2014-2-26
Camilla,L,Bockelman,1990-11-8,2015-8-20
Bennie,W,Tar,1953-11-17,2001-7-19
Violet,P,Friscia,1966-9-11,2009-5-10
Myron,R,Radocha,1929-10-15,1997-10-24
Billie,L,Dimicco,1988-4-15,2006-10-13
Ronaldo,I,Reckley,1968-9-21,1993-10-21
Alta,H,Krot,1958-11-13,2016-6-12
Kelley,I,Jolson,1944-3-5,2013-1-16
Bella,T,Sandos,1984-12-16,2013-6-26
Dennie,L,Pockat,1947-2-9,2010-6-3
Lesley,Y,Minzey,1932-8-14,2015-11-4
Eleanor,D,Zinsmeyer,1935-4-17,1993-5-27
Winona,K,Verwey,1964-1-8,2002-3-17
Phyllis,W,Hydro,1956-5-27,2013-11-16
Bernadette,B,Backo,1975-11-8,2011-12-16
Beatrice,K,Dressel,1963-2-6,2006-9-19
Linda,W,Hempel,1922-4-26,2019-4-28
Iona,G,Riener,1987-5-7,2019-8-6
Miriam,V,Meche,1958-12-3,1990-7-9
Sue,Z,Bebley,1954-4-20,2003-12-26
Brynn,O,Forste,1972-7-6,2001-3-9
Mazie,Q,Groh,2000-5-27,2012-2-2
Coleman,Q,Norato,1991-5-6,1998-2-8
Avery,F,Genther,1962-2-27,1995-12-17
Virginia,P,Tinklenberg,1973-3-14,2010-2-10
Gerard,Q,Stetzler,1961-4-3,1997-1-28
Deanna,U,Fortna,1943-1-27,2007-3-12
Jean,R,Techau,1978-6-8,2008-6-21
Damaris,N,Corvello,1965-2-21,2012-2-13
Isabel,X,Eikel,1954-3-28,1998-4-17
Edith,B,Nabarrete,1931-11-14,2000-10-5
Meadow,Z,Mooers,1941-3-11,1999-4-2
Roxanna,Y,Brasseaux,1950-5-28,2015-10-10
Jay,M,Okyere,1923-4-20,1995-3-9
Susan,Q,Wulfert,1970-2-27,2010-8-16
Mae,L,Otlowski,1921-10-2,2015-12-5
Lucy,U,Quandahl,1946-1-22,2011-6-7
Fae,H,Slike,2000-12-1,2020-7-25
Fern,Z,Zarcone,1946-5-26,2017-4-23
Theresa,B,Biddinger,1940-12-17,2019-12-14
Harley,L,Labayen,1977-12-13,2012-8-19
Coleen,L,Jankovsky,1940-6-20,2009-12-4
Humberto,J,Carouthers,1991-8-5,2006-12-23
Arvilla,G,Schuenke,1975-7-11,1992-1-23
Basil,R,Feighner,1933-2-14,2020-1-13
Rogers,E,Hennegan,1961-1-12,2005-7-2
Otha,U,Bierut,1991-11-11,2015-5-13
Kaylah,E,Torbitt,1992-7-16,2002-12-20
William,A,Zupancic,1935-9-20,2001-11-20
Neal,F,Harkins,1923-4-17,2017-10-4
Kourtney,C,Lukefahr,1995-1-4,2008-8-15
Ursula,S,Bellino,1992-7-15,2006-4-5
Natalie,Y,Imeson,1954-6-28,2003-4-15
Freddy,O,Piekos,1930-5-28,2017-9-21
Hallie,A,Bendana,1988-12-12,2013-1-24
Amie,N,Westleigh,1924-8-11,2015-7-23
Llewellyn,Y,Schrepfer,1929-7-18,2011-2-21
Tatyana,U,Rumpff,1987-8-26,2013-7-24
Ellis,C,Skoda,1940-2-7,2011-10-22
Gayle,M,Swineford,1968-7-4,2020-5-10
Carroll,R,Gembala,1926-3-24,2016-4-1
Tommie,M,Alis,1950-3-24,2001-4-9
Bennett,G,Ancira,1974-4-23,2019-7-10
Derek,W,Totaro,1981-10-4,1991-11-12
Vito,N,Beucher,2000-3-12,2012-10-19
Zane,Z,Nidever,1945-10-21,2012-12-22
Gregory,I,Birden,1987-10-7,2003-7-24
Harrison,G,Iannelli,1943-9-28,2008-7-17
Terence,A,Lathon,1960-7-16,2018-2-3
Chloe,Z,Thonn,1971-3-1,1996-2-20
Jeanette,B,Karami,1934-5-4,2002-4-12
Consuelo,D,Mccutchan,1964-11-23,1996-10-25
Denver,S,Fimbres,1995-6-11,2014-11-4
Shellie,P,Vandemerwe,1963-12-1,2018-9-20
Rudolph,O,Usherwood,1952-4-15,2007-9-22
Jana,H,Edelstein,1993-3-10,1998-11-4
Maryann,V,Soldavini,1999-10-3,2012-12-22
Fredrick,F,Hegar,2000-8-12,2019-9-2
Anastasia,B,Vanvalin,1988-2-19,1995-11-20
Timothy,K,Kliebert,1958-9-12,2007-1-22
Silas,X,Grohn,1997-12-1,1996-1-28
Emery,S,Dieudonne,1948-4-1,1995-11-27
Alphonse,D,Doerre,1936-2-28,1991-8-10
Edwina,N,Jenicek,1975-10-17,2012-6-2
Evan,S,Grivette,1960-6-14,2013-4-28
Derek,T,Richtmyer,1967-2-28,2019-10-23
Sheena,G,Kussmann,1933-11-5,2019-1-26
Norman,A,Yerka,1920-12-16,1993-12-5
Bobbie,T,Baurer,1956-6-1,2001-8-24
Carmelita,B,Elizondo,1920-11-14,2008-5-13
Deondre,H,Zanko,1927-10-17,2011-5-3
Almon,Z,Henries,1953-12-9,2000-8-16
Alivia,A,Francel,1959-4-3,1998-10-1
Anthony,F,Zietlow,1982-7-15,1996-9-26
Huey,V,Basir,1937-3-26,2014-7-10
Dollie,S,Conlin,1934-6-26,2015-4-10
Archibald,N,Escher,1965-8-21,2011-6-17
Darrian,I,Lofties,1990-8-10,1990-11-20
Seymour,N,Cadigan,1979-12-1,2009-12-5
Theadore,F,Goro,1995-2-20,2018-6-5
Elma,J,Hasert,1958-8-10,2002-12-3
Estell,S,Harison,1933-3-14,2012-7-8
Cristobal,H,Perkes,1991-10-9,2009-7-13
Alice,W,Towsend,1962-3-25,1997-7-9
Trina,S,Schrock,1973-8-16,2010-4-22
Sonny,Q,Sanabia,1970-12-13,2004-6-2
Constance,O,Swiderek,1934-1-6,1996-12-22
Eli,P,Girty,1976-4-27,1995-4-21
Wendell,H,Ranweiler,1949-5-22,2007-12-12
Wallace,F,Walseth,1973-3-21,2011-9-19
Manuel,T,Fritzke,1978-5-18,2017-12-18
Elliott,M,Kobussen,1939-11-13,1999-12-20
Elvie,W,Saunier,1923-9-1,1995-4-16
Tabitha,E,Venitez,1985-7-28,1997-11-28
Dolores,H,Sudekum,1973-1-4,1992-6-3
Adella,V,Blissenbach,1999-12-5,2020-1-14
Mark,D,Coull,1940-2-26,2002-6-26
Clifford,S,Vieau,1939-6-3,2000-7-16
Alonzo,O,Andreola,1940-7-22,2007-6-21
Arthur,F,Gorritz,1921-10-11,1991-8-25
Hubert,Z,Kitzinger,1984-7-9,2019-12-19
Edgar,G,Gunther,1949-2-4,2013-2-22
Claire,L,Dubbs,1968-8-23,2011-3-28
Donna,Y,Pita,1992-10-1,1998-2-16
Shelby,I,Belote,1958-4-15,2003-7-15
Lucinda,J,Kuzniewski,1973-3-12,2017-11-10
Marianna,S,Mattiello,1999-1-22,2013-6-12
Maryann,Y,Chuma,1946-10-9,2011-12-11
Leonard,G,Perel,1958-1-10,2005-1-22
Amie,R,Cranley,1995-5-12,1994-3-14
Neta,A,Tunget,1953-2-4,1997-6-25
Jules,P,Spreng,1939-1-16,2011-6-23
Georgia,V,Mrak,1991-7-28,2013-8-2
Ottis,V,Santellano,1923-9-5,1991-2-25
Pedro,D,Guin,1942-1-1,2012-11-25
Ginger,Q,Roig,1950-11-27,1991-3-15
Ella,I,Montilla,1992-7-15,1999-12-5
Arnie,N,Raymo,1987-2-28,2008-2-14
Clair,F,Tambunga,1922-11-8,2010-1-5
Jalon,T,Stothers,1990-8-26,2012-9-28
Erma,P,Shinder,1962-4-26,1996-5-7
Nadine,Y,Barreno,1985-9-8,2018-7-7
Avis,M,Pick,1981-6-14,2014-3-21
Arline,L,Farruggio,1958-12-27,2015-6-17
Camille,J,Krogmann,1946-7-26,2019-5-17
Valerie,D,Preuett,1953-10-3,2009-9-25
Misti,U,Ishee,1946-11-21,2014-2-28
Hurley,Z,Garciaalvarez,1965-8-7,2008-10-17
Shauna,L,Cahalan,1995-9-27,2013-6-19
Oma,Z,Gables,1974-5-18,2011-4-2
Kari,Y,Dings,1983-2-20,1995-4-23
Dora,J,Ankner,1969-2-12,2019-4-12
Blair,W,Gilbraith,1979-6-22,2008-2-27
Eloise,F,Suchanek,1950-2-16,2017-2-14
Loria,V,Churchfield,1976-4-14,1999-5-23
Lena,F,Breininger,1996-7-12,2007-12-28
Christopher,V,Gatliff,1934-10-5,2020-2-21
Jay,D,Gazdecki,1977-7-3,1996-6-1
Ora,D,Heyerdahl,1929-8-8,2013-7-20
Barbara,V,Posse,1949-5-1,2014-7-11
Oleta,R,Travnicek,1950-1-12,2011-11-18
Archie,S,Kozer,1969-7-13,1993-3-4
Boyce,P,Perlin,1938-1-1,2020-7-2
Antonia,E,Germany,1984-1-9,1993-6-19
Clara,J,Tolpa,1935-12-5,1996-12-14
Iva,K,Hinegardner,1933-5-19,1998-10-21
Jesica,C,Larese,1982-6-5,1992-8-21
Travis,P,Marcell,1920-4-23,2006-12-9
Wilhelmina,P,Ami,1926-4-16,2009-6-25
Nathen,Q,Minten,1957-5-18,2016-3-18
Chelsey,R,Schurter,1970-4-14,2012-10-26
Brian,M,Pignataro,1993-10-26,2006-4-4
Hugo,I,Ellie,1957-11-12,2012-10-27
Caroline,M,Buchignani,1922-10-13,2001-6-24
Erin,K,Clarey,1922-2-20,2005-4-8
Maurine,F,Paulus,1958-9-6,2018-2-26
Keara,U,Kratzert,1968-7-28,1994-11-11
Karyme,V,Delaosa,1931-8-20,2018-3-19
Dale,G,Hokit,1965-4-23,1996-9-28
Willene,P,Schaum,1978-6-2,2012-7-2
Henry,C,Malaty,1957-5-11,2015-6-12
Alfonzo,I,Buono,1950-2-17,2014-4-27
Anne,F,Gunhammer,1983-10-17,1995-2-10
Leota,O,Innella,1959-11-9,2008-8-27
Gary,G,Finewood,1950-4-25,2020-11-8
Antonio,H,Grabenhorst,1979-10-16,2001-10-23
Carl,B,Ruof,1936-9-4,2020-4-18
Harriet,M,Grammatico,1971-7-3,1990-3-24
Simon,E,Brennick,1996-11-2,2009-11-8
Wilbur,V,Feldbush,1980-7-12,2007-6-16
Braden,R,Traxinger,1969-7-24,2000-12-26
Gonzalo,X,Deshommes,1927-8-21,2000-8-16
Rosalind,V,Blan,1924-10-23,2003-4-4
Isaac,D,Fullove,1984-3-20,2006-2-5
Donald,G,Raymond,1932-6-28,1997-8-17
Chance,P,Ditomaso,1960-4-27,2006-12-14
Bertha,B,Calwell,1971-4-23,2018-9-6
Carter,Z,Patano,1962-12-10,2014-4-22
Charlene,B,Golter,1959-6-7,1992-4-10
Kalyn,W,Scarton,1997-10-19,1990-6-11
Nakia,I,Clarett,1967-9-24,1993-11-25
Kerry,M,Vannier,1945-11-28,2005-5-11
Eleanora,G,Fueston,1991-8-16,2014-5-28
Troy,O,Bardell,2000-10-14,2012-12-7
Hugh,Y,Klap,1952-5-1,2003-9-27
Karyn,I,Orphey,1967-9-18,2014-10-10
Melissa,M,London,1978-6-12,2001-12-14
Allyson,H,Marsico,1966-8-11,2008-1-5
Darron,C,Jerez,1947-5-8,1997-4-13
Rudy,J,Billock,1974-3-26,1997-11-6
Norma,K,Kneafsey,2000-11-1,2015-1-3
Anna,O,Piet,1955-1-1,2000-10-10
Keenan,K,Castore,1976-10-5,2003-5-14
Twila,F,Bela,1988-1-7,2013-11-24
Bridgette,O,Treworgy,1942-12-22,2015-4-17
Errol,E,Gronowski,1947-11-1,2013-4-19
Herbert,L,Kaffenberger,1984-2-9,2003-2-20
Chelsey,T,Mcalester,1956-10-23,1991-3-27
Kandi,N,Shettles,1976-7-14,2011-2-11
Dorothy,S,Nartker,1920-5-17,1996-3-13
Edgardo,T,Renza,1936-6-27,2013-1-2
Warner,B,Euler,1933-5-9,2012-5-4
Ione,W,Murat,1938-1-22,2011-8-11
Kristie,S,Crumbaugh,1997-11-21,1996-11-6
Christy,K,Rucks,1946-12-15,2010-6-15
Vesta,O,Saterfield,1934-3-8,2011-7-1
Sanders,Q,Grzeszczak,1980-7-9,2019-5-21
Annie,V,Lilleberg,1965-5-18,1993-3-22
Bria,F,Enox,1996-9-11,2005-10-19
Dixie,C,Kanavel,1987-1-19,1993-8-24
Donnie,V,Amott,1961-12-6,1993-3-12
Damarion,T,Vancurler,1958-10-10,2005-5-2
Karol,A,Rabito,1969-11-11,2017-5-20
Letha,B,Micheals,1969-4-19,1996-2-22
Janna,Z,Caroli,1994-2-21,1999-4-20
Isabelle,Q,Kieran,1935-8-5,1991-12-8
Edwina,U,Basarab,1973-4-19,1995-6-26
Janice,O,Murph,1990-6-14,2004-8-17
Dana,G,Grotjohn,1940-3-14,2003-12-5
Catherine,N,Hamberg,1945-1-25,2003-7-4
Tobias,C,Hartley,1942-10-21,2015-7-5
Marjory,X,Engholm,1923-10-14,2007-7-10
Julius,W,Piedrahita,1979-4-13,1992-2-11
Phillip,P,Bates,1926-9-14,2014-12-7
Bryant,I,Mcclennon,1932-6-5,2020-3-19
Unknown,Z,Girdner,1952-1-16,2004-11-16
Judi,A,Zelina,1941-1-22,2006-10-9
Filomena,Q,Winkworth,1931-11-9,2001-9-15
David,H,Viehl,1943-10-20,2010-6-27
Tatum,G,Marritt,1946-1-21,2018-5-8
Davis,Z,Depersis,1933-9-5,2007-9-3
Sherry,P,Badenoch,1940-6-23,2003-7-18
Violet,E,Plonsky,1997-8-15,2003-12-18
Virginia,Q,Takamura,1923-9-21,2020-11-27
Annabel,C,Rodibaugh,1933-7-11,2008-3-5
Rickey,C,Linzie,1940-12-18,2004-12-25
Marlyn,Y,List,1951-6-26,2003-10-28
Art,C,Flakus,1951-9-17,2020-1-3
Lawrence,T,Pischke,1981-5-13,2012-2-14
Alfredo,B,Rohs,1937-12-21,2010-10-8
Nickolas,C,Hookham,1924-6-13,1997-11-21
Kristina,C,Stangler,1930-12-23,1991-12-24
Larkin,F,Vecchia,1957-6-7,2001-1-11
Rae,V,Giannakopoulos,1996-12-19,1993-9-10
Carl,M,Atri,1928-12-22,2016-5-9
Gertrude,M,Keleta,1973-4-16,2004-2-4
Lula,U,Delplato,1929-6-3,2010-9-28
Calvin,M,Geene,1946-2-13,2001-2-28
Clyda,R,Okonski,1967-6-9,1993-7-4
Sybil,O,Ciotti,1969-10-8,2015-11-4
Pansy,G,Mumley,1990-7-20,1995-3-26
Malcolm,T,Wallenburg,1945-3-11,2005-6-10
Addie,O,Leifer,1939-6-4,1995-4-6
Elroy,T,Ambroz,1946-9-8,2014-6-27
Shirley,F,Lenberg,1995-3-2,1994-10-27
Moses,V,Dragun,1959-6-15,2007-4-16
Henry,J,Louzon,1954-9-28,2002-4-2
Emmie,E,Wil,1971-10-28,2006-6-20
Ross,Z,Gause,1927-8-25,2013-2-22
Clark,B,Letherman,1934-12-1,1991-7-9
Ross,W,Butkus,1932-1-21,2006-6-28
Lonzo,L,Langhauser,1987-6-25,2016-5-28
Carson,A,Tiburcio,1931-10-17,2008-6-19
Jackson,H,Killgore,1985-10-28,2000-2-28
Peggy,P,Roginsky,1935-12-21,2020-6-16
Candis,Z,Carier,1953-8-19,2016-8-23
Lorena,Z,Coffin,1942-9-13,2000-10-26
Ross,P,Gorrostieta,1971-5-4,2020-3-1
Golda,D,Inzunza,1964-8-24,2010-4-15
Deborah,M,Pague,2000-9-12,1997-7-6
Theo,A,Javan,1999-11-12,1996-12-23
Hester,X,Neagle,1959-7-27,1993-10-15
Laura,C,Ed,1998-4-6,2005-4-9
Michell,W,Sardin,1951-6-1,2007-11-26
Morgan,G,Westmark,1964-1-25,2002-9-24
Verl,E,Sei,1988-8-1,1999-4-28
Luis,U,Hengeveld,1999-6-10,1999-1-17
Alva,H,Sedano,1941-1-20,1993-12-10
Eulalia,I,Biltoft,1997-2-8,1997-1-17
Efren,Z,Girgis,1960-2-20,2005-8-14
Mickie,A,Drapala,1992-2-9,2017-8-5
Willie,K,Starky,1933-3-25,1995-5-17
Constance,I,Santisi,1920-7-27,2010-6-11
Fern,I,Cagigas,1984-7-20,1990-4-27
Edmond,B,Fiskum,1996-11-21,2001-5-27
Jeannie,T,Biolsi,1938-2-16,2017-12-5
Charlie,J,Kuszewski,1928-5-20,1993-4-24
Merry,I,Boober,1982-4-17,2009-1-4
Ellsworth,M,Mohmand,1960-1-26,1990-3-16
Russell,K,Mandola,1937-10-23,2009-11-5
Andrew,T,Verrett,1949-8-15,1995-5-23
Kari,J,Blanas,1963-11-25,1993-12-20
Retha,H,Karsten,1949-3-19,2018-5-6
Lee,C,Teekell,1973-9-8,1993-5-11
Devan,E,Fiondella,1940-11-10,2017-7-17
Elvin,X,Athy,1984-9-5,1992-10-10
Ferd,M,Flavell,1950-2-23,1991-11-22
Francis,A,Martone,1925-3-23,2002-7-12
Queenie,U,Hodnik,1998-3-17,2001-1-23
Montgomery,D,Bogel,1966-6-3,1999-8-3
Christina,F,Kominsky,1947-2-14,1998-7-14
Hal,K,Pinasco,1960-11-18,2006-12-13
Howard,L,Bockes,1979-11-26,2013-2-27
April,T,Salery,1943-5-18,1992-9-15
Vernon,X,Skomp,1940-8-5,2006-1-17
Mason,I,Twiss,1949-8-7,2015-1-11
